sesion04_chalkboard
…
Categorizar variable numérica
Variable según condición compleja

Se quieren crear categorías de edad: “20-30”, “31-35” y “36-41”

datos_fase1 %>% 
  select(id, age) %>% 
  mutate(agecat = case_when(age >= 20 & age <= 30 ~ "20-30", 
                            age >= 31 & age <= 35 ~ "31-35", 
                            age >= 36 & age <= 41 ~ "36-41", 
                            TRUE ~ as.character(NA))
         ) 

# A tibble: 106 × 3
      id   age agecat
   <dbl> <dbl> <chr> 
 1     1    33 31-35 
 2     1    32 31-35 
 3     2    27 20-30 
 4     2    27 20-30 
 5     3    25 20-30 
 6     3    25 20-30 
 7     4    37 36-41 
 8     4    38 36-41 
 9     5    31 31-35 
10     5    32 31-35 
# … with 96 more rows

Se desea crear variable indicadora de inclusión en estudio: Solo pacientes sin pareja y que proceden de Callao, Carabayllo, Chorrillos o SJL son elegibles:

datos_fase1 %>% 
  mutate(elegible = case_when(
    married2 == "Without couple" & procedence %in% c("Callao", "Carabayllo", "Chorrillos", "SJL") ~ "Elegible", 
    TRUE ~ "No elegible"
    )
  ) 

# A tibble: 106 × 15
      id time     treat    age race  married marri…¹ proce…² weight height    e2
   <dbl> <fct>    <fct>  <dbl> <chr> <fct>   <fct>   <chr>    <dbl>  <dbl> <dbl>
 1     1 Baseline Place…    33 Mest… Single  Withou… Callao    59      1.4  87.3
 2     1 3 months Place…    32 Mest… Single  Withou… Callao    59.9    1.3 210. 
 3     2 Baseline Dosis…    27 Mest… Single  Withou… Santa …   62      1.5 169. 
 4     2 3 months Dosis…    27 Mest… Single  Withou… Santa …   62.1    1.6  99.9
 5     3 Baseline Dosis…    25 Mest… Single  Withou… Callao    62      1.6  78.8
 6     3 3 months Dosis…    25 Mest… Single  Withou… Callao    60      1.6 155. 
 7     4 Baseline Dosis…    37 Mest… Divorc… Withou… Callao    60.9    1.5  41.0
 8     4 3 months Dosis…    38 Mest… Divorc… Withou… Callao    61.4    1.5 109. 
 9     5 Baseline Place…    31 Mest… Single  Withou… La Mol…   64      1.5  43.0
10     5 3 months Place…    32 Mest… Single  Withou… La Mol…   58.1    1.6  56.0
# … with 96 more rows, 4 more variables: lh <dbl>, fsh <dbl>, prog <dbl>,
#   elegible <chr>, and abbreviated variable names ¹​married2, ²​procedence
…
