sesion03_chalkboard
…
mutate() en acción

Crear una nueva variable
Crear varias nuevas variables
Remplazar variable existente

Si queremos crear la variable índice de masa corporal:

datos_fase1 %>% 
  select(id, weight, height) %>% # Nos quedamos con peso y talla 
  mutate(imc = weight / height ^ 2) # Creamos IMC en base a peso y talla

# A tibble: 106 × 4
      id weight height   imc
   <dbl>  <dbl>  <dbl> <dbl>
 1     1   59      1.4  30.1
 2     1   59.9    1.3  35.4
 3     2   62      1.5  27.6
 4     2   62.1    1.6  24.3
 5     3   62      1.6  24.2
 6     3   60      1.6  23.4
 7     4   60.9    1.5  27.1
 8     4   61.4    1.5  27.3
 9     5   64      1.5  28.4
10     5   58.1    1.6  22.7
# … with 96 more rows

También podemos crear más de una variable nueva.

Incluso, podemos reutilizar la variable recién creada para crear otra nueva dentro del mismo argumento de mutate()

datos_fase1 %>% 
  select(id, weight, height) %>% 
  mutate(
    imc = weight / height ^ 2, 
    imc_escalado = imc / 10
    ) 

# A tibble: 106 × 5
      id weight height   imc imc_escalado
   <dbl>  <dbl>  <dbl> <dbl>        <dbl>
 1     1   59      1.4  30.1         3.01
 2     1   59.9    1.3  35.4         3.54
 3     2   62      1.5  27.6         2.76
 4     2   62.1    1.6  24.3         2.43
 5     3   62      1.6  24.2         2.42
 6     3   60      1.6  23.4         2.34
 7     4   60.9    1.5  27.1         2.71
 8     4   61.4    1.5  27.3         2.73
 9     5   64      1.5  28.4         2.84
10     5   58.1    1.6  22.7         2.27
# … with 96 more rows

Tener cuidado si se quiere reutilizar la variable original, en ese caso es mejor crear columna nueva.

Queremos que la edad sea reportada en meses:

Crear columna nueva:

datos_fase1 %>% 
  select(id, age) %>% 
  mutate(age2 = age * 12) # Columna nueva llamada age2

# A tibble: 106 × 3
      id   age  age2
   <dbl> <dbl> <dbl>
 1     1    33   396
 2     1    32   384
 3     2    27   324
 4     2    27   324
 5     3    25   300
 6     3    25   300
 7     4    37   444
 8     4    38   456
 9     5    31   372
10     5    32   384
# … with 96 more rows

Remplazar la edad:

datos_fase1 %>% 
  select(id, age) %>% 
  mutate(age = age * 12) # Notar que se remplazó age 

# A tibble: 106 × 2
      id   age
   <dbl> <dbl>
 1     1   396
 2     1   384
 3     2   324
 4     2   324
 5     3   300
 6     3   300
 7     4   444
 8     4   456
 9     5   372
10     5   384
# … with 96 more rows
…
    ... 
    nuevo_nombre = viejo_nombre 

rename() en acción

Cambiar el nombre de married por casado1 y el de age por edad.

datos_fase1 %>% 
  rename(
    casado1 = married, 
    edad = age
    )

# A tibble: 106 × 14
      id time     treat   edad race  casado1 marri…¹ proce…² weight height    e2
   <dbl> <fct>    <fct>  <dbl> <chr> <fct>   <fct>   <chr>    <dbl>  <dbl> <dbl>
 1     1 Baseline Place…    33 Mest… Single  Withou… Callao    59      1.4  87.3
 2     1 3 months Place…    32 Mest… Single  Withou… Callao    59.9    1.3 210. 
 3     2 Baseline Dosis…    27 Mest… Single  Withou… Santa …   62      1.5 169. 
 4     2 3 months Dosis…    27 Mest… Single  Withou… Santa …   62.1    1.6  99.9
 5     3 Baseline Dosis…    25 Mest… Single  Withou… Callao    62      1.6  78.8
 6     3 3 months Dosis…    25 Mest… Single  Withou… Callao    60      1.6 155. 
 7     4 Baseline Dosis…    37 Mest… Divorc… Withou… Callao    60.9    1.5  41.0
 8     4 3 months Dosis…    38 Mest… Divorc… Withou… Callao    61.4    1.5 109. 
 9     5 Baseline Place…    31 Mest… Single  Withou… La Mol…   64      1.5  43.0
10     5 3 months Place…    32 Mest… Single  Withou… La Mol…   58.1    1.6  56.0
# … with 96 more rows, 3 more variables: lh <dbl>, fsh <dbl>, prog <dbl>, and
#   abbreviated variable names ¹​married2, ²​procedence
…
    ... 
    viejo_nombre = nuevo_nombre 

recode() en acción

Cambiar los valores de married2 del inglés al español:

datos_fase1 %>% 
  mutate(married2 = recode(married2, 
                           "Without couple" = "Sin pareja", 
                           "With couple" = "Con pareja"))

# A tibble: 106 × 14
      id time     treat    age race  married marri…¹ proce…² weight height    e2
   <dbl> <fct>    <fct>  <dbl> <chr> <fct>   <fct>   <chr>    <dbl>  <dbl> <dbl>
 1     1 Baseline Place…    33 Mest… Single  Sin pa… Callao    59      1.4  87.3
 2     1 3 months Place…    32 Mest… Single  Sin pa… Callao    59.9    1.3 210. 
 3     2 Baseline Dosis…    27 Mest… Single  Sin pa… Santa …   62      1.5 169. 
 4     2 3 months Dosis…    27 Mest… Single  Sin pa… Santa …   62.1    1.6  99.9
 5     3 Baseline Dosis…    25 Mest… Single  Sin pa… Callao    62      1.6  78.8
 6     3 3 months Dosis…    25 Mest… Single  Sin pa… Callao    60      1.6 155. 
 7     4 Baseline Dosis…    37 Mest… Divorc… Sin pa… Callao    60.9    1.5  41.0
 8     4 3 months Dosis…    38 Mest… Divorc… Sin pa… Callao    61.4    1.5 109. 
 9     5 Baseline Place…    31 Mest… Single  Sin pa… La Mol…   64      1.5  43.0
10     5 3 months Place…    32 Mest… Single  Sin pa… La Mol…   58.1    1.6  56.0
# … with 96 more rows, 3 more variables: lh <dbl>, fsh <dbl>, prog <dbl>, and
#   abbreviated variable names ¹​married2, ²​procedence
…
